{
    "status": 200,
    "request_id": "35fb53f0c077590e8413c0a7fe21011775fa5f12c2d4e4f83eca839a4b241d0e6f8bcdb0c0cebbdeba31bd49f265e689",
    "data": {
        "sellerList": [
            {
                "merchant": "XYZ8M",
                "name": "Handelsgesellschaft Foo and Bar GmbH",
                "authToken": "***",
                "isTerminated": true,
                "marketplaceId": "A1PA6795UKMFR9"
            }
        ]
    }
}