{
    "items": [
        {
            "fulfillerStockChangeId": "BK23004",
            "fulfillerTimestamp": "2020-03-02T08:49:37.9090000+00:00",
            "stockLevel": 203.202,
            "stockLevelReserved": 203.202,
            "stockLevelBlocked": 203.202,
            "quantity": 203.202,
            "quantityReserved": 203.202,
            "quantityBlocked": 203.202,
            "quantityAnnounced": 203.202,
            "stockLevelAnnounced": 203.202,
            "changeType": "Adjustment",
            "current": false,
            "stockChangeId": {
                "warehouseId": "FULF04XX-12345-0001",
                "jfsku": "MERC01PRDCT",
                "stockVersion": 30220
            },
            "inboundItem": {
                "inboundId": "MERC03INBND01",
                "merchantInboundNumber": "string",
                "inboundItemId": "1"
            },
            "outboundItem": {
                "outboundId": "MERC02AXEV",
                "merchantOutboundNumber": "string",
                "outboundItemId": "5"
            },
            "outboundShippingNotificationItem": {
                "outboundShippingNotificationId": "FULF062CMSF79GV8",
                "outboundShippingNotificationItemId": "3"
            },
            "batch": "Elor",
            "bestBefore": {
                "year": 1989,
                "month": 11,
                "day": 22
            },
            "returnItem": {
                "returnId": "MERC05SFERGF",
                "returnItemId": "MERC05PosFDSE"
            },
            "note": "This is a custom note.",
            "modificationInfo": {
                "createdAt": "2021-09-20T08:07:44Z",
                "updatedAt": "2021-09-20T08:07:44Z",
                "state": "New",
                "changesInRange": [
                    {}
                ]
            },
            "merchantSku": "ART2394871"
        }
    ],
    "_page": {
        "total": 0,
        "limit": 50,
        "offset": 50
    },
    "_links": {
        "previous": "?$orderBy=modificationInfo/createdAt&$top=50&$skip=0",
        "next": "$orderBy=modificationInfo/createdAt&$top=50&$skip=100"
    },
    "nextPageLink": "?$orderBy=modificationInfo/createdAt&$top=50&$skip=100",
    "count": 0
}