{
    "nextChunkUrl": "https://ffn2.api.jtl-software.com/api/v1/merchant/stocks/updates?fromDate=2020-02-11T16%3a05%3a06.834%2b00%3a00&toDate=2020-02-11T16%3a07%3a22.385%2b00%3a00&page=2&ignoreOwnApplicationId=false&ignoreOwnUserId=false",
    "from": "2021-09-20T08:07:44Z",
    "to": "2021-09-20T08:07:44Z",
    "data": [
        {
            "stockChangeId": {
                "warehouseId": "FULF04XX-12345-0001",
                "jfsku": "MERC01PRDCT",
                "stockVersion": 30220
            },
            "fulfillerStockChangeId": "BK23004",
            "stockLevel": 203.202,
            "stockLevelReserved": 203.202,
            "stockLevelBlocked": 203.202,
            "stockLevelAnnounced": 203.202,
            "quantity": 203.202,
            "quantityReserved": 203.202,
            "quantityBlocked": 203.202,
            "quantityAnnounced": 203.202,
            "batch": "Elor",
            "bestBefore": {
                "year": 1989,
                "month": 11,
                "day": 22
            },
            "changeType": "Adjustment",
            "outboundItem": {
                "outboundId": "MERC02AXEV",
                "merchantOutboundNumber": "string",
                "outboundItemId": "5"
            },
            "inboundItem": {
                "inboundId": "MERC03INBND01",
                "merchantInboundNumber": "string",
                "inboundItemId": "1"
            },
            "returnItem": {
                "returnId": "MERC05SFERGF",
                "returnItemId": "MERC05PosFDSE"
            },
            "outboundShippingNotificationItem": {
                "outboundShippingNotificationId": "FULF062CMSF79GV8",
                "outboundShippingNotificationItemId": "3"
            },
            "note": "This is a custom note.",
            "current": false,
            "modificationInfo": {
                "createdAt": "2021-09-20T08:07:44Z",
                "updatedAt": "2021-09-20T08:07:44Z",
                "state": "New",
                "changesInRange": [
                    {}
                ]
            },
            "merchantSku": "ART2394871",
            "fulfillerTimestamp": "2020-03-02T08:49:37.9090000+00:00"
        }
    ],
    "moreDataAvailable": true
}