[
    {
        "tokenId": "1234",
        "token": "foo",
        "name": "Interdimensional Goggles",
        "applicationId": "string",
        "clientId": "string",
        "createdAt": "2020-11-03T12:05:44.073+00:00",
        "scopes": [
            "string1",
            "string2"
        ]
    }
]
