{
    "shippingMethodId": "XYZ",
    "modificationInfo": {
        "createdAt": "2009-06-15T13:45:30.0000000Z",
        "updatedAt": "2009-06-15T13:45:30.0000000Z",
        "deletedAt": "2009-06-15T13:45:30.0000000Z",
        "state": "New"
    },
    "name": "string",
    "trackingUrlSchema": "string",
    "carrierCode": "string",
    "carrierName": "string",
    "note": "string",
    "cutoffTime": "string",
    "shippingType": "Standard"
}
