{
    "warehouseId": "FULF04XX-12345-0001",
    "stockLevel": 203.202,
    "stockLevelAnnounced": 203.202,
    "stockLevelReserved": 203.202,
    "stockLevelBlocked": 203.202,
    "stockReservedDetails": [
        {
            "outboundId": "MERC02AXEV",
            "outboundItemId": "5",
            "quantityReserved": 203.202
        }
    ],
    "stockAnnouncedDetails": [
        {
            "inboundId": "MERC03INBND01",
            "inboundItemId": "1",
            "quantityAnnounced": 203.202
        }
    ],
    "jfsku": "MERC01PRDCT",
    "stockLevelDetails": [
        {
            "batch": "Elor",
            "bestBefore": {
                "year": 1989,
                "month": 11,
                "day": 22
            },
            "stockLevel": 203.202,
            "stockLevelBlocked": 203.202
        }
    ],
    "merchantSku": "ART2394871",
    "fulfillerTimestamp": "2020-03-02T08:49:37.9090000+00:00"
}